cuisine,removed,total,ratio
vietnamese,69,825,0.08363636363636363
indian,210,3003,0.06993006993006994
moroccan,50,821,0.06090133982947625
cajun_creole,84,1546,0.054333764553686936
jamaican,23,526,0.043726235741444866
thai,67,1539,0.043534762833008445
mexican,230,6438,0.03572538055296676
brazilian,14,467,0.029978586723768737
chinese,76,2673,0.02843247287691732
french,74,2646,0.027966742252456538
japanese,37,1423,0.02600140548137737
spanish,22,989,0.022244691607684528
korean,18,830,0.021686746987951807
russian,9,489,0.018404907975460124
british,14,804,0.017412935323383085
southern_us,69,4320,0.01597222222222222
italian,124,7838,0.015820362337330952
filipino,11,755,0.01456953642384106
irish,7,667,0.010494752623688156
greek,11,1175,0.009361702127659575
all,1219,39774,0.030648162115955148
